[
    {
        "Purpose": "Additive-Fuel",
        "SAP Material Desc": "AA Quicksilver Whl&TireClnr 6/710ml CA",
        "SAP Material #": "17654",
        "UPC Code": "67788176549"
    },
    {
        "Purpose": "Air Freshener",
        "SAP Material Desc": "AA AirFr Crd CMist 48/3ct CA",
        "SAP Material #": "11301",
        "UPC Code": "67788113018"
    },
    {
        "Purpose": "Air Freshener",
        "SAP Material Desc": "AA AirFr Crd IsRtrt 48/3ct CA",
        "SAP Material #": "17535",
        "UPC Code": "67788175351"
    },
    {
        "Purpose": "Air Freshener",
        "SAP Material Desc": "AA AirFr Crd MtnAir 48/3ct CA",
        "SAP Material #": "11302",
        "UPC Code": "67788113025"
    },
    {
        "Purpose": "Air Freshener",
        "SAP Material Desc": "AA AirFr Crd NCar 48/3ct CA",
        "SAP Material #": "11303",
        "UPC Code": "67788113032"
    },
    {
        "Purpose": "Air Freshener",
        "SAP Material Desc": "AA AirFr Crd PurLin 48/3ct CA",
        "SAP Material #": "17534",
        "UPC Code": "67788175344"
    },
    {
        "Purpose": "Air Freshener",
        "SAP Material Desc": "AA AirFr Crd WdBry 48/3ct CA",
        "SAP Material #": "11305",
        "UPC Code": "67788113056"
    },
    {
        "Purpose": "Air Freshener",
        "SAP Material Desc": "AA AirFr ScntOilVntClp CMist 24/7ml CA",
        "SAP Material #": "11201",
        "UPC Code": "67788112011"
    },
    {
        "Purpose": "Air Freshener",
        "SAP Material Desc": "AA AirFr ScntOilVntClp IsRtrt 24/7ml CA",
        "SAP Material #": "17548",
        "UPC Code": "67788175481"
    },
    {
        "Purpose": "Air Freshener",
        "SAP Material Desc": "AA AirFr ScntOilVntClp MtnAir 12/7ml CA",
        "SAP Material #": "17431",
        "UPC Code": "67788112028"
    },
    {
        "Purpose": "Air Freshener",
        "SAP Material Desc": "AA AirFr ScntOilVntClp MtnAir 24/7ml CA",
        "SAP Material #": "11202",
        "UPC Code": "67788112028"
    },
    {
        "Purpose": "Air Freshener",
        "SAP Material Desc": "AA AirFr ScntOilVntClp NCar 12/7ml CA",
        "SAP Material #": "17432",
        "UPC Code": "67788112035"
    },
    {
        "Purpose": "Air Freshener",
        "SAP Material Desc": "AA AirFr ScntOilVntClp NCar 24/7ml CA",
        "SAP Material #": "11203",
        "UPC Code": "67788112035"
    },
    {
        "Purpose": "Air Freshener",
        "SAP Material Desc": "AA AirFr ScntOilVntClp PurLin 24/7ml CA",
        "SAP Material #": "17533",
        "UPC Code": "67788175337"
    },
    {
        "Purpose": "Air Freshener",
        "SAP Material Desc": "AA AirFr ScntOilVntClp WdBry 12/7ml CA",
        "SAP Material #": "17433",
        "UPC Code": "67788112059"
    },
    {
        "Purpose": "Air Freshener",
        "SAP Material Desc": "AA AirFr ScntOilVntClp WdBry 24/7ml CA",
        "SAP Material #": "11205",
        "UPC Code": "67788112059"
    },
    {
        "Purpose": "Air Freshener",
        "SAP Material Desc": "AA AirFr VC CMst 12/7ml CA",
        "SAP Material #": "17429",
        "UPC Code": "67788112011"
    },
    {
        "Purpose": "Cleaner",
        "SAP Material Desc": "AA AutoGlsClnr Pump 24/118ml CA",
        "SAP Material #": "17652",
        "UPC Code": "67788176525"
    },
    {
        "Purpose": "Cleaner",
        "SAP Material Desc": "AA BugRmvr Trig 6/473ml CA",
        "SAP Material #": "17259",
        "UPC Code": "67788172596"
    },
    {
        "Purpose": "Cleaner",
        "SAP Material Desc": "AA Clng Spng 25pc Disp 100/1ct CA",
        "SAP Material #": "17575",
        "UPC Code": "67788110734"
    },
    {
        "Purpose": "Cleaner",
        "SAP Material Desc": "AA Crpt&UphlClnr Aer ScrCap 6/510g CA",
        "SAP Material #": "17261",
        "UPC Code": "67788172619"
    },
    {
        "Purpose": "Cleaner",
        "SAP Material Desc": "AA ExtrmGlassClnr Aer 6/567g CA",
        "SAP Material #": "17656",
        "UPC Code": "67788176563"
    },
    {
        "Purpose": "Cleaner",
        "SAP Material Desc": "AA GlassClnr Spry 6/650ml CA",
        "SAP Material #": "10575",
        "UPC Code": "67788320607"
    },
    {
        "Purpose": "Cleaner",
        "SAP Material Desc": "AA MulPurpAutoClnr Spng 100/1ct CA",
        "SAP Material #": "15309",
        "UPC Code": "67788110734"
    },
    {
        "Purpose": "Cleaner",
        "SAP Material Desc": "AA MulPurpClnr Pump 24/118ml CA",
        "SAP Material #": "17653",
        "UPC Code": "67788176532"
    },
    {
        "Purpose": "Cleaner",
        "SAP Material Desc": "AA MulPurpClnr Trig 6/473ml CA",
        "SAP Material #": "15274",
        "UPC Code": "67788110680"
    },
    {
        "Purpose": "Cleaner",
        "SAP Material Desc": "AA OxMg Crpt&Uphl Clnr 6/650ml CA",
        "SAP Material #": "07793",
        "UPC Code": "67788109264"
    },
    {
        "Purpose": "Leather Care",
        "SAP Material Desc": "AA Outlst LthrRstr 6/236ml CA",
        "SAP Material #": "17664",
        "UPC Code": "67788176648"
    },
    {
        "Purpose": "Mod Pallet",
        "SAP Material Desc": "AA CanTire 8pc CarCare GP 4/1ct CA",
        "SAP Material #": "17441",
        "UPC Code": "67788174415"
    },
    {
        "Purpose": "Mod Pallet",
        "SAP Material Desc": "AA CarCareKit 4pc SftCdy 2/1ct CA",
        "SAP Material #": "17532",
        "UPC Code": "67788175320"
    },
    {
        "Purpose": "Protectant",
        "SAP Material Desc": "AA AirFrProt Trig CMst 6/473mL CA",
        "SAP Material #": "15972",
        "UPC Code": "67788110765"
    },
    {
        "Purpose": "Protectant",
        "SAP Material Desc": "AA AirFrProt Trig MtnAir 6/473mL CA",
        "SAP Material #": "15973",
        "UPC Code": "67788110772"
    },
    {
        "Purpose": "Protectant",
        "SAP Material Desc": "AA AirFrProt Trig PurLin 6/473ml CA",
        "SAP Material #": "17487",
        "UPC Code": "67788174873"
    },
    {
        "Purpose": "Protectant",
        "SAP Material Desc": "AA DetAdv Prot Trig 6/473ml CA",
        "SAP Material #": "16905",
        "UPC Code": "67788169053"
    },
    {
        "Purpose": "Protectant",
        "SAP Material Desc": "AA Lnglst Trm&PlstcRstr 6/236ml CA",
        "SAP Material #": "17488",
        "UPC Code": "67788174880"
    },
    {
        "Purpose": "Protectant",
        "SAP Material Desc": "AA LthrCare Gel 6/532ml CA",
        "SAP Material #": "11343",
        "UPC Code": "67788108823"
    },
    {
        "Purpose": "Protectant",
        "SAP Material Desc": "AA LthrCare Prot Trg 6/473ml CA",
        "SAP Material #": "17262",
        "UPC Code": "67788172626"
    },
    {
        "Purpose": "Protectant",
        "SAP Material Desc": "AA Nat Fin ProtcDtlr 6/473ml CA",
        "SAP Material #": "12968",
        "UPC Code": "67788110345"
    },
    {
        "Purpose": "Protectant",
        "SAP Material Desc": "AA Outlst Prot 6/236ml CA",
        "SAP Material #": "17665",
        "UPC Code": "67788176655"
    },
    {
        "Purpose": "Protectant",
        "SAP Material Desc": "AA Prot Gel 6/591ml CA",
        "SAP Material #": "11348",
        "UPC Code": "67788108830"
    },
    {
        "Purpose": "Protectant",
        "SAP Material Desc": "AA Prot Or 24/118ml CA",
        "SAP Material #": "07406",
        "UPC Code": "67788101251"
    },
    {
        "Purpose": "Protectant",
        "SAP Material Desc": "AA Prot Pump Or 12/300ml CA",
        "SAP Material #": "02731",
        "UPC Code": "67788113001"
    },
    {
        "Purpose": "Protectant",
        "SAP Material Desc": "AA Prot Ref Or 4/1.89l CA",
        "SAP Material #": "07366",
        "UPC Code": "67788120351"
    },
    {
        "Purpose": "Protectant",
        "SAP Material Desc": "AA Prot Ref Or 6/1.41L CA",
        "SAP Material #": "08934",
        "UPC Code": "67788120504"
    },
    {
        "Purpose": "Protectant",
        "SAP Material Desc": "AA Prot Spng VendPk 100/1ct CA",
        "SAP Material #": "15308",
        "UPC Code": "67788110727"
    },
    {
        "Purpose": "Protectant",
        "SAP Material Desc": "AA Prot Trig Or 12/473ml CA",
        "SAP Material #": "14711",
        "UPC Code": "67788780210"
    },
    {
        "Purpose": "Protectant",
        "SAP Material Desc": "AA Prot Trig Or 6/946ml CA",
        "SAP Material #": "07466",
        "UPC Code": "67788780241"
    },
    {
        "Purpose": "Protectant",
        "SAP Material Desc": "AA UltrShn BtrSmthWx 6/500ml CA",
        "SAP Material #": "14833",
        "UPC Code": "67788110574"
    },
    {
        "Purpose": "Protectant",
        "SAP Material Desc": "AA UltrShn Prot Trig 6/475ml CA",
        "SAP Material #": "07532",
        "UPC Code": "67788780302"
    },
    {
        "Purpose": "Tire Care",
        "SAP Material Desc": "AA DetAdv Tire Foam Aer 12/510g CA",
        "SAP Material #": "16912",
        "UPC Code": "67788169121"
    },
    {
        "Purpose": "Tire Care",
        "SAP Material Desc": "AA ExTireShn Gel 6/530ml CA",
        "SAP Material #": "10231",
        "UPC Code": "67788115043"
    },
    {
        "Purpose": "Tire Care",
        "SAP Material Desc": "AA ExTireShn Pump 24/118ml CA",
        "SAP Material #": "17673",
        "UPC Code": "67788176730"
    },
    {
        "Purpose": "Tire Care",
        "SAP Material Desc": "AA ExTireShn Trig 6/650ml CA",
        "SAP Material #": "14376",
        "UPC Code": "67788780265"
    },
    {
        "Purpose": "Tire Care",
        "SAP Material Desc": "AA Lnglst TireGlz Aer 6/226g CA",
        "SAP Material #": "17434",
        "UPC Code": "67788174347"
    },
    {
        "Purpose": "Tire Care",
        "SAP Material Desc": "AA Outlst TireGlz Aer 6/226g CA",
        "SAP Material #": "17659",
        "UPC Code": "67788176594"
    },
    {
        "Purpose": "Tire Care",
        "SAP Material Desc": "AA Tire Foam Aer 12/113g CA",
        "SAP Material #": "17598",
        "UPC Code": "67788175986"
    },
    {
        "Purpose": "Tire Care",
        "SAP Material Desc": "AA Tire Foam Aer 12/567g CA",
        "SAP Material #": "11297",
        "UPC Code": "67788781736"
    },
    {
        "Purpose": "Tire Care",
        "SAP Material Desc": "AA Tire Foam Aer FrcShn 6/510g CA",
        "SAP Material #": "10230",
        "UPC Code": "67788404109"
    },
    {
        "Purpose": "Value Pack",
        "SAP Material Desc": "AA 2012 CanTire FDGP 4/1ct CA",
        "SAP Material #": "17086",
        "UPC Code": "67788170868"
    },
    {
        "Purpose": "Value Pack",
        "SAP Material Desc": "AA 2012 WM HGP 4/1ct CA",
        "SAP Material #": "17228",
        "UPC Code": "67788172282"
    },
    {
        "Purpose": "Value Pack",
        "SAP Material Desc": "AA 2013 WM GftPk 2/1ct CA",
        "SAP Material #": "17374",
        "UPC Code": "67788172282"
    },
    {
        "Purpose": "Value Pack",
        "SAP Material Desc": "AA 2015 CanTire 8pc CarCare GP 4/1ct CA",
        "SAP Material #": "17860",
        "UPC Code": "67788174415"
    },
    {
        "Purpose": "Value Pack",
        "SAP Material Desc": "AA 2015 CarCare 4pc SftCdy 2/1ct CA",
        "SAP Material #": "17791",
        "UPC Code": "67788175320"
    },
    {
        "Purpose": "Value Pack",
        "SAP Material Desc": "AA 4-pc StrtrKit Caddy 4/1ct CA",
        "SAP Material #": "11055",
        "UPC Code": "67788110550"
    },
    {
        "Purpose": "Value Pack",
        "SAP Material Desc": "AA 8pc Strtr Clng Kit 4/1ct CA",
        "SAP Material #": "17666",
        "UPC Code": "67788176662"
    },
    {
        "Purpose": "Value Pack",
        "SAP Material Desc": "AA Gift Pack 4/1ct CA",
        "SAP Material #": "11053",
        "UPC Code": "67788110536"
    },
    {
        "Purpose": "Value Pack",
        "SAP Material Desc": "AA Tire Foam Aer 6/2x567g CA",
        "SAP Material #": "17852",
        "UPC Code": "67788178529"
    },
    {
        "Purpose": "Value Pack",
        "SAP Material Desc": "AA Tire & Rim Care Kit 2/1ct CA",
        "SAP Material #": "17541",
        "UPC Code": "67788175412"
    },
    {
        "Purpose": "Value Pack",
        "SAP Material Desc": "AA Wipes 4-pack RSC 6/1ct CA",
        "SAP Material #": "10881",
        "UPC Code": "67788108816"
    },
    {
        "Purpose": "Wash",
        "SAP Material Desc": "AA Car Wash 6/715ml CA",
        "SAP Material #": "17740",
        "UPC Code": "67788251253"
    },
    {
        "Purpose": "Wash",
        "SAP Material Desc": "AA Car Wash Conc 4/1.89L CA",
        "SAP Material #": "02670",
        "UPC Code": "67788251024"
    },
    {
        "Purpose": "Wash",
        "SAP Material Desc": "AA Car Wash Conc 6/715ml CA",
        "SAP Material #": "02876",
        "UPC Code": "67788251253"
    },
    {
        "Purpose": "Wash",
        "SAP Material Desc": "AA CarWsh 4/1.89L CA",
        "SAP Material #": "17485",
        "UPC Code": "67788251024"
    },
    {
        "Purpose": "Wash",
        "SAP Material Desc": "AA PremWsh&Wax+Prtct 6/1.42L CA",
        "SAP Material #": "17486",
        "UPC Code": "67788174866"
    },
    {
        "Purpose": "Wash",
        "SAP Material Desc": "AA UltrShn WshWx 4/1.89l CA",
        "SAP Material #": "11322",
        "UPC Code": "67788108847"
    },
    {
        "Purpose": "Wash",
        "SAP Material Desc": "AA UltrShn WshWx 6/473ml CA",
        "SAP Material #": "14822",
        "UPC Code": "67788110567"
    },
    {
        "Purpose": "Wash",
        "SAP Material Desc": "AA UltrShn WshWx 6/473ml CA",
        "SAP Material #": "17741",
        "UPC Code": "67788110567"
    },
    {
        "Purpose": "Wash",
        "SAP Material Desc": "AA UltrShn WshWx Dtlr 6/500ml CA",
        "SAP Material #": "12967",
        "UPC Code": "67788110338"
    },
    {
        "Purpose": "Waxes",
        "SAP Material Desc": "AA ExtrmShldWx 6/500ml CA",
        "SAP Material #": "16730",
        "UPC Code": "67788110949"
    },
    {
        "Purpose": "Wheel Care",
        "SAP Material Desc": "AA ExRmClnr Pump 24/118ml CA",
        "SAP Material #": "17658",
        "UPC Code": "67788176587"
    },
    {
        "Purpose": "Wheel Care",
        "SAP Material Desc": "AA Rim Protectant 6/198G CA",
        "SAP Material #": "13857",
        "UPC Code": "67788110468"
    },
    {
        "Purpose": "Wheel Care",
        "SAP Material Desc": "AA RmClnr Trig 6/710ml CA",
        "SAP Material #": "14434",
        "UPC Code": "67788403409"
    },
    {
        "Purpose": "Wipes-Cleaning",
        "SAP Material Desc": "AA ClngWps 6/50ct CA",
        "SAP Material #": "08605",
        "UPC Code": "67788780746"
    },
    {
        "Purpose": "Wipes-Cleaning",
        "SAP Material Desc": "AA Clng Wps Org 6/25ct CA",
        "SAP Material #": "08471",
        "UPC Code": "67788109257"
    },
    {
        "Purpose": "Wipes-Cleaning",
        "SAP Material Desc": "AA ClnUp Wps 12/15ct CA",
        "SAP Material #": "17224",
        "UPC Code": "67788172244"
    },
    {
        "Purpose": "Wipes-Cleaning",
        "SAP Material Desc": "AA Crpt&Uphl Wps 12/12ct CA",
        "SAP Material #": "17226",
        "UPC Code": "67788172268"
    },
    {
        "Purpose": "Wipes-Cleaning",
        "SAP Material Desc": "AA MulPurpClnr Wps 6/25ct CA",
        "SAP Material #": "08367",
        "UPC Code": "67788108694"
    },
    {
        "Purpose": "Wipes-Cleaning",
        "SAP Material Desc": "AA O-T-G Clng Wps 6/25ct",
        "SAP Material #": "11953",
        "UPC Code": "67788110208"
    },
    {
        "Purpose": "Wipes-Disinfecting",
        "SAP Material Desc": "AA Disf Wps FrScnt 12/15ct CA",
        "SAP Material #": "17436",
        "UPC Code": "67788174361"
    },
    {
        "Purpose": "Wipes-Disinfecting",
        "SAP Material Desc": "AA Disf Wps FrScnt 6/25ct CA",
        "SAP Material #": "17435",
        "UPC Code": "67788174354"
    },
    {
        "Purpose": "Wipes-Glass",
        "SAP Material Desc": "AA Glass Wps 6/25ct CA",
        "SAP Material #": "13679",
        "UPC Code": "67788108502"
    },
    {
        "Purpose": "Wipes-Glass",
        "SAP Material Desc": "AA Glass Wps 6/50ct CA",
        "SAP Material #": "17708",
        "UPC Code": "67788177089"
    },
    {
        "Purpose": "Wipes-Glass",
        "SAP Material Desc": "AA O-T-G Glass Wps 6/25ct CA",
        "SAP Material #": "13711",
        "UPC Code": "67788110178"
    },
    {
        "Purpose": "Wipes-Glass",
        "SAP Material Desc": "AA Tch&Scrn Wps 12/15ct CA",
        "SAP Material #": "17225",
        "UPC Code": "67788172251"
    },
    {
        "Purpose": "Wipes-Leather",
        "SAP Material Desc": "AA LeatherProt Wps 6/20ct CA",
        "SAP Material #": "08472",
        "UPC Code": "67788108564"
    },
    {
        "Purpose": "Wipes-Protectant",
        "SAP Material Desc": "AA AirFrProt Wps CMst 6/25ct CA",
        "SAP Material #": "15970",
        "UPC Code": "67788110741"
    },
    {
        "Purpose": "Wipes-Protectant",
        "SAP Material Desc": "AA AirFrProt Wps MtnAir 6/25ct CA",
        "SAP Material #": "15971",
        "UPC Code": "67788110758"
    },
    {
        "Purpose": "Wipes-Protectant",
        "SAP Material Desc": "AA AirFrProt Wps NCar 6/25ct CA",
        "SAP Material #": "17256",
        "UPC Code": "67788172565"
    },
    {
        "Purpose": "Wipes-Protectant",
        "SAP Material Desc": "AA AirFrProt Wps PurLin 6/25ct CA",
        "SAP Material #": "17444",
        "UPC Code": "67788174446"
    },
    {
        "Purpose": "Wipes-Protectant",
        "SAP Material Desc": "AA AirFrProt Wps WdBry 6x25ct CA",
        "SAP Material #": "17257",
        "UPC Code": "67788172572"
    },
    {
        "Purpose": "Wipes-Protectant",
        "SAP Material Desc": "AA DetAdv Prot Wps 6/25ct CA",
        "SAP Material #": "16911",
        "UPC Code": "67788169114"
    },
    {
        "Purpose": "Wipes-Protectant",
        "SAP Material Desc": "AA NatFinDtlr Prot Wps 6/25ct CA",
        "SAP Material #": "15974",
        "UPC Code": "67788110789"
    },
    {
        "Purpose": "Wipes-Protectant",
        "SAP Material Desc": "AA Prot Wps 6/25ct CA",
        "SAP Material #": "08445",
        "UPC Code": "67788108595"
    },
    {
        "Purpose": "Wipes-Protectant",
        "SAP Material Desc": "AA Prot Wps 6/50ct CA",
        "SAP Material #": "08606",
        "UPC Code": "67788780753"
    },
    {
        "Purpose": "Wipes-Protectant",
        "SAP Material Desc": "AA UltrShn Prot Wps 6/20ct CA",
        "SAP Material #": "10233",
        "UPC Code": "67788320638"
    }
]
